{
    "footer_learn_more_list": 3,
    "community_resources_list_3_call_to_action": 2,
    "community_resources_list_3_call_to_action_1_help": "Em inglês",
    "community_resources_list_3_call_to_action_2_content": "BAIXAR PAPEL",
    "community_resources_list_3_call_to_action_2_help": "Em Espanhol",
    "community_resources_license_content": "Esses trabalhos são licenciados sob a Licença de Atribuição-CompartilhaIgual 4.0 Internacional.",
    "community_resources_license_image": "assets/images/cc_by_sa.png",
    "community_resources_license_url": "https://creativecommons.org/licenses/by-sa/4.0/",
    "community_resources_call_to_action_headline": "Precisa de ajuda?",
    "community_resources_call_to_action": "Envie um e-mail",
    "text_direction": "ltr",
    "website_name": "Círculo",
    "website_headline_1": "A segurança começa com a comunidade",
    "website_headline_2": "O Círculo ajuda a conectar você a uma rede confiável de seis pares. Estabeleça protocolos, envie alertas e mantenha aqueles no seu círculo informados.",
    "how_it_works_headline": "Como funciona",
    "how_it_works_cards": 4,
    "how_it_works_card_1_headline": "Decida quem estará no seu círculo",
    "how_it_works_card_1_content": "Um círculo é composto por 6 pares de confiança que, coletivamente, concordam em apoiar um ao outro.",
    "how_it_works_card_2_headline": "Identifique os seus protocolos de segurança",
    "how_it_works_card_2_content": "Protocolos de segurança adequados podem fazer a diferença. Conecte-se com aqueles que façam sentido no seu círculo. O Artigo 19 pode ajudar.",
    "how_it_works_card_2_call_to_action": "Visite a Segurança Integral",
    "how_it_works_card_2_call_to_action_url": "https://seguridadintegral.articulo19.org/",
    "how_it_works_card_3_headline": "Forme um acordo social",
    "how_it_works_card_3_content": "Converse com o seu círculo sobre o que vocês precisam uns dos outros. O jogo ‘Me encontre no Círculo’ foi desenvolvido para ajudar nessa discussão.",
    "how_it_works_card_3_call_to_action": "Obtenha o jogo",
    "how_it_works_card_4_headline": "Utilize o Círculo para se manter conectado",
    "how_it_works_card_4_content": "Para começar, baixe o aplicativo circulo e crie um link de convite para o seu círculo.",
    "website_intro": "O Círculo é um espaço digital seguro para quando jornalistas, ativistas e defensores dos direitos humanos se sentem inseguros. Ele oferece uma forma segura de comunicação para as pessoas confiarem nas suas redes e nas comunidades quando enfrentam e desafiam o assédio e a violência.\n\nEsta ferramenta foi criada como um esforço do \"Guardian Project\" e do ARTIGO 19, com base na experiência, nas necessidades e nas preocupações das mulheres que ocupam um papel central na sociedade por atuarem na atividade jornalística, nas iniciativas sociais e nas mobilizações em defesa dos direitos humanos.\n\nNo centro do aplicativo está o bem-estar, garantindo que cada jornalista, ativista e defensor dos direitos humanos seja apoiado por uma comunidade escolhida por ele mesmo. Isso pode ajudar a mitigar o esgotamento, o trauma e consequentemente, a autocensura nas áreas de trabalho de alto risco.",
    "what_you_can_do_headline": "O que você pode fazer com o aplicativo",
    "ask_for_help_headline": "Peça ajuda",
    "ask_for_help_content": "Envie alertas para quem você confia nos momentos de grande e de pequena necessidade. O Círculo é um lugar protegido para compartilhar dentro do seu círculo.",
    "share_location_headline": "Forneça atualizações de localização segura durante a viagem.",
    "share_location_content": "Quando você compartilha a sua localização no Círculo, ela é criptografada e é enviada apenas para as pessoas do seu círculo. O aplicativo não rastreia, expõe ou usa a sua localização.",
    "stay_informed_headline": "Se mantenha informado(a)",
    "stay_informed_content": "O Círculo prioriza as situações que mais precisam da sua atenção.",
    "developers_headline": "Desenvolvido com carinho",
    "developers_content": "O Círculo foi construído através de uma parceria com organizações líderes preocupadas com os direitos humanos, com a privacidade digital e com a segurança física.",
    "features_cards": 4,
    "features_card_1_headline": "Sem e-mail ou número de telefone",
    "features_card_2_headline": "Conversas criptografadas",
    "features_card_3_headline": "Recursos de bloqueio e disfarces",
    "features_card_4_headline": "Nenhum histórico é armazenado",
    "disclaimer_content": "Observação: o aplicativo em si não fornece resposta de emergência. Ele simplesmente ajuda você a informar as pessoas e indicar o que você precisa. Para enviar e receber mensagens, é preciso uma conexão com a Internet.",
    "call_to_action_headline": "Confira os recursos da nossa comunidade",
    "call_to_action_content": "Ver os recursos",
    "footer_learn_more_headline": "Saiba mais",
    "footer_learn_more_list_1_content": "Guardian Project (Desenvolvedor)",
    "footer_learn_more_list_2_content": "Article 19 (PArceiro)",
    "footer_learn_more_list_3_content": "Recursos comunitários",
    "footer_free_software_headline": "Software livre",
    "footer_free_software_content": "Este aplicativo é um software gratuito e de código aberto. Saiba mais e nos ajude a construir em <https://gitlab.com/circuloapp>.",
    "copyright": "Direitos autorais © 2021 Todos os direitos reservados",
    "community_resources_headline": "Recursos comunitários",
    "community_resources_content": "Caso queira implantar o Círculo com a sua comunidade, aqui estão alguns recursos para ajudá-lo.",
    "community_resources_permalink": "community-resources/",
    "community_resources_list": 3,
    "community_resources_list_1_tagline": "Seguridad Integral",
    "community_resources_list_1_headline": "Explore os protocolos de segurança físicos",
    "community_resources_list_1_content": "Explore a 'Integral Security for Journalists' da \"ARTICLE 19\", Escritório para o México e a América Central, onde você pode encontrar ferramentas sobre segurança física, segurança digital, regulamentações, direito à informação entre outros tópicos, que podem ajudar jornalistas e defensores dos direitos humanos a reduzir os riscos relacionados ao seu trabalho.",
    "community_resources_list_1_call_to_action_1_content": "Visite a Segurança Integral",
    "community_resources_list_1_image": "assets/images/seguridad_integral.png",
    "community_resources_list_2_call_to_action": 2,
    "community_resources_list_2_tagline": "Me encontre no Círculo: O jogo",
    "community_resources_list_2_headline": "Estabeleça compromissos sociais",
    "community_resources_list_2_content": "'Me encontre no Círculo' é um jogo de RPG que orienta os jogadores em situações onde é necessário um apoio emocional, assistência física ou simplesmente solidariedade. O objetivo do jogo é concretizar o compromisso assumido ao ingressar em um círculo no Círculo.",
    "community_resources_list_2_call_to_action_1_content": "BAIXAR MATERIAIS",
    "community_resources_list_2_call_to_action_1_help": "Em inglês",
    "community_resources_list_2_call_to_action_2_content": "BAIXAR MATERIAIS",
    "community_resources_list_2_call_to_action_2_help": "Em Espanhol",
    "community_resources_list_2_image": "assets/images/game.png",
    "community_resources_list_3_tagline": "Pesquisa de antecedentes",
    "community_resources_list_3_headline": "Proposta de apoio para mulheres jornalistas",
    "community_resources_list_3_call_to_action_1_content": "BAIXAR PAPEL",
    "community_resources_list_1_call_to_action": 1,
    "website_headline_image_2": "assets/images/en/home.svg",
    "ask_for_help_image": "assets/images/en/status.svg",
    "share_location_notification_repeat": 3,
    "invitation_headline": "Você foi convidado para um círculo.",
    "invitation_permalink": "i/",
    "invitation_call_to_action": "Explore o Círculo &#8594;",
    "invitation_less_options": "Menos opções &#9650;",
    "direct_download_content": "Download direto",
    "website_headline_image_1": "assets/images/en/our_circle.svg",
    "share_location_notification": "assets/images/en/location.svg",
    "community_resources_list_2_call_to_action_2_url": "assets/documents/Find_Me_On_Circulo_Game-SPANISH_v1.pdf",
    "community_resources_list_2_call_to_action_1_url": "assets/documents/Find_Me_On_Circulo_Game-ENGLISH_v1.pdf",
    "invitation_more_options": "Mais opções de download &#9660;",
    "community_resources_list_3_content": "Este documento oferece uma análise da violência sofrida pelas mulheres jornalistas no México, na Guatemala e em Honduras, mapeando as características do exercício jornalístico e o exercício do gênero entre um território e outro. Com base no que foi descrito acima, identifica-se que os cenários hostis continuarão a ser uma constante na prática profissional das mulheres jornalistas até que as alterações estruturais necessárias sejam implementadas visando reduzir a violência contra a imprensa e a violência contra as mulheres. No entanto, com o espírito de contribuir num curto prazo para o sentimento de segurança das mulheres jornalistas e visando a continuidade do seu importante trabalho, o Projeto Guardian e o ARTIGO 19 apresentam o Círculo.",
    "invitation_content": "Instale o aplicativo Círculo e toque novamente no link de convite para participar.",
    "direct_download_help": "APK para Android",
    "developers_videos": 2,
    "developer_video_2_image": "assets/images/how_it_works.png",
    "stay_informed_notifications": 3,
    "stay_informed_notification_1_image": "assets/images/en/mariel.svg",
    "developer_video_2_url": "assets/videos/how_circulo_works_1080p.mp4",
    "stay_informed_notification_2_image": "assets/images/en/ana.svg",
    "stay_informed_notification_3_image": "assets/images/en/marta.svg",
    "developer_video_1_image": "assets/images/this_is_circulo.png",
    "developer_video_1_url": "assets/videos/this_is_circulo_1080p.mp4",
    "community_resources_list_3_call_to_action_1_url": "assets/docs/A19CirculoReport2021_en.pdf",
    "more_locales": "Mais traduções",
    "locale_name": "português",
    "menu": "Menu aberto",
    "locale_current": "(idioma atual)",
    "locale_available": "Idiomas disponíveis",
    "community_resources_list_3_call_to_action_2_url": "assets/docs/A19CirculoReport2021_es.pdf",
    "community_resources_call_to_action_url": "mailto:support@guardianproject.info",
    "community_resources_call_to_action_content": "Caso tenha dúvidas ou queira fazer um comentário, entre em contato com a equipe de suporte do Guardian Project.",
    "community_resources_list_1_call_to_action_1_url": "https://seguridadintegral.articulo19.org/",
    "fdroid_url": "https://f-droid.org/packages/org.article19.circulo",
    "community_resources_list_3_image": "assets/images/map.png",
    "app_store_url": "https://itunes.apple.com/WebObjects/MZStore.woa/wa/viewSoftware?id=1571749642",
    "direct_download_url": "https://guardianproject.info/releases/circulo-latest.apk",
    "footer_learn_more_list_1_url": "https://guardianproject.info/",
    "footer_learn_more_list_2_url": "https://www.article19.org/",
    "footer_learn_more_list_3_url": "community-resources/",
    "how_it_works_card_3_call_to_action_url": "assets/documents/Find_Me_On_Circulo_Game-ENGLISH_v1.pdf",
    "developer_video_1_title": "Porque foi criado",
    "developer_video_1_duration": "2:55",
    "developer_video_2_title": "Como funciona",
    "google_play_url": "https://play.google.com/store/apps/details?id=org.article19.circulo.next",
    "ana_title": "Ana",
    "ana_status": "Incerto",
    "ana_location": "1 local novo",
    "ana_time": "Agora mesmo",
    "developer_video_2_duration": "4:29"
}
