{
    "more_locales": "Fler översättningar",
    "locale_name": "Engelska",
    "menu": "Öppna menyn",
    "locale_available": "Tillgängliga språk",
    "website_name": "Círculo",
    "website_headline_1": "Säkerhet börjar med gemenskap",
    "website_headline_image_1": "assets/images/en/our_circle.svg",
    "website_headline_image_2": "assets/images/en/home.svg",
    "how_it_works_headline": "Hur det fungerar",
    "how_it_works_cards": 4,
    "how_it_works_card_2_headline": "Identifiera dina säkerhetsprotokoll",
    "how_it_works_card_2_call_to_action": "Besök Seguridad Integral",
    "how_it_works_card_2_call_to_action_url": "https://seguridadintegral.articulo19.org/",
    "how_it_works_card_3_call_to_action_url": "assets/documents/Find_Me_On_Circulo_Game-SWEDISH_v1.pdf",
    "how_it_works_card_4_headline": "Använd Círculo för att fortsätta vara ansluten",
    "what_you_can_do_headline": "Vad du kan göra med appen",
    "ask_for_help_headline": "Be om hjälp",
    "ask_for_help_content": "Skicka varningar till de som du litar på i behövliga tider både stora som små. Círculo är en skyddad plats för att dela med din cirkel.",
    "share_location_notification": "assets/images/en/location.svg",
    "share_location_notification_repeat": 3,
    "how_it_works_card_3_call_to_action": "Hämta spelet",
    "share_location_content": "När du delar din plats i Círculo så är den krypterad och skickas endast till din cirkel. Appen spårar inte, exponerar eller använder din plats.",
    "stay_informed_headline": "Fortsätt håll dig informerad",
    "stay_informed_notifications": 3,
    "stay_informed_notification_1_image": "assets/images/en/mariel.svg",
    "stay_informed_notification_2_image": "assets/images/en/ana.svg",
    "stay_informed_notification_3_image": "assets/images/en/marta.svg",
    "developers_headline": "Utvecklad med omsorg",
    "developers_videos": 2,
    "developer_video_1_url": "assets/videos/this_is_circulo_1080p.mp4",
    "developer_video_1_image": "assets/images/this_is_circulo.png",
    "developer_video_1_title": "Varför vi skapade det",
    "developer_video_1_duration": "2:55",
    "developer_video_2_url": "assets/videos/how_circulo_works_1080p.mp4",
    "developer_video_2_image": "assets/images/how_it_works.png",
    "developer_video_2_title": "Hur det fungerar",
    "how_it_works_card_2_content": "Korrekta säkerhetsprotokoll kan göra skillnad. Skapa sådana som är vettiga för din krets. Artikel 19 kan hjälpa.",
    "share_location_headline": "Ge säkra plats-uppdateringar under färd.",
    "text_direction": "ltr",
    "locale_current": "(nuvarande språk)",
    "how_it_works_card_3_headline": "Bilda en social överrenskommelse",
    "how_it_works_card_1_headline": "Bestäm vem som ska vara i din cirkel",
    "how_it_works_card_4_content": "För att börja, ladda ner circulo-appen och skapa en inbjudningslänk för din cirkel.",
    "ask_for_help_image": "assets/images/en/status.svg",
    "how_it_works_card_3_content": "Prata med din cirkel om vad ni behöver från varandra. 'Find med on Circulo'-spelet är producerat för att underlätta den här diskussionen.",
    "developers_content": "Círculo byggdes genom ett partnerskap med ledande organisationer som arbetar med mänskliga rättigheter, digitalt privatliv och fysisk säkerhet.",
    "developer_video_2_duration": "4:29",
    "stay_informed_content": "Círculo ger prioritet till situationerna som mest behöver din uppmärksamhet.",
    "footer_learn_more_list_3_url": "community-resources/",
    "community_resources_permalink": "community-resources/",
    "community_resources_list_1_image": "assets/images/seguridad_integral.png",
    "community_resources_call_to_action_url": "mailto:support@guardianproject.info",
    "community_resources_license_image": "assets/images/cc_by_sa.png"
}
